E: 61804.119607 0003 002f 0
E: 61804.119607 0003 0030 254
E: 61804.119607 0003 0031 0
E: 61804.119607 0003 0032 0
E: 61804.119607 0003 0033 0
E: 61804.119607 0003 0034 0
E: 61804.119607 0003 0035 606
E: 61804.119607 0003 0036 393
E: 61804.119607 0003 0037 0
E: 61804.119607 0003 0038 0
E: 61804.119607 0003 0039 12852
E: 61804.119607 0003 003a 52
E: 61804.119607 0003 003b 0
E: 61804.119607 0003 002f 1
E: 61804.119607 0003 0039 -1
E: 61804.119607 0003 002f 2
E: 61804.119607 0003 0039 -1
E: 61804.119607 0003 002f 3
E: 61804.119607 0003 0039 -1
E: 61804.119607 0003 002f 4
E: 61804.119607 0003 0039 -1
E: 61804.119607 0003 002f 5
E: 61804.119607 0003 0039 -1
E: 61804.119607 0003 002f 6
E: 61804.119607 0003 0039 -1
E: 61804.119607 0003 002f 7
E: 61804.119607 0003 0039 -1
E: 61804.119607 0003 002f 8
E: 61804.119607 0003 0039 -1
E: 61804.119607 0003 002f 9
E: 61804.119607 0003 0039 -1
E: 61804.119607 0003 002f 0
E: 61804.119607 0001 0145 1
E: 61804.119607 0001 014a 1
E: 61804.119607 0000 0000 0
E: 61804.125020 0003 003a 51
E: 61804.125027 0003 0018 51
E: 61804.125028 0000 0000 0
E: 61804.130513 0003 003a 50
E: 61804.130519 0003 0018 50
E: 61804.130521 0000 0000 0
E: 61804.136000 0003 003a 49
E: 61804.136011 0003 0030 220
E: 61804.136017 0003 0018 49
E: 61804.136018 0000 0000 0
E: 61804.141488 0003 0036 392
E: 61804.141495 0003 0001 392
E: 61804.141497 0000 0000 0
E: 61804.146997 0003 0035 607
E: 61804.147008 0003 0030 180
E: 61804.147012 0003 0000 607
E: 61804.147015 0000 0000 0
E: 61804.152453 0003 0036 391
E: 61804.152454 0003 003a 51
E: 61804.152460 0003 0001 391
E: 61804.152461 0003 0018 51
E: 61804.152463 0000 0000 0
E: 61804.158024 0003 0035 608
E: 61804.158025 0003 0036 390
E: 61804.158026 0003 003a 48
E: 61804.158031 0003 0000 608
E: 61804.158033 0003 0001 390
E: 61804.158034 0003 0018 48
E: 61804.158035 0000 0000 0
E: 61804.163425 0003 0036 389
E: 61804.163425 0003 003a 50
E: 61804.163427 0003 0001 389
E: 61804.163427 0003 0018 50
E: 61804.163428 0000 0000 0
E: 61804.169052 0003 0035 610
E: 61804.169054 0003 0036 387
E: 61804.169055 0003 003a 46
E: 61804.169071 0003 0000 610
E: 61804.169072 0003 0001 387
E: 61804.169072 0003 0018 46
E: 61804.169073 0000 0000 0
E: 61804.174532 0003 0035 612
E: 61804.174534 0003 0036 384
E: 61804.174535 0003 003a 47
E: 61804.174536 0003 0030 220
E: 61804.174540 0003 0000 612
E: 61804.174542 0003 0001 384
E: 61804.174543 0003 0018 47
E: 61804.174544 0000 0000 0
E: 61804.180897 0003 0035 616
E: 61804.180899 0003 0036 378
E: 61804.180901 0003 0030 254
E: 61804.180905 0003 0000 616
E: 61804.180907 0003 0001 378
E: 61804.180909 0000 0000 0
E: 61804.186434 0003 0035 621
E: 61804.186436 0003 0036 366
E: 61804.186442 0003 0000 621
E: 61804.186443 0003 0001 366
E: 61804.186446 0000 0000 0
E: 61804.191883 0003 0035 632
E: 61804.191885 0003 0036 348
E: 61804.191886 0003 003a 46
E: 61804.191891 0003 0000 632
E: 61804.191892 0003 0001 348
E: 61804.191894 0003 0018 46
E: 61804.191895 0000 0000 0
E: 61804.197424 0003 0035 639
E: 61804.197424 0003 0036 332
E: 61804.197424 0003 003a 45
E: 61804.197426 0003 0000 639
E: 61804.197426 0003 0001 332
E: 61804.197427 0003 0018 45
E: 61804.197427 0000 0000 0
E: 61804.203016 0003 0035 645
E: 61804.203017 0003 0036 323
E: 61804.203017 0003 003a 47
E: 61804.203019 0003 0000 645
E: 61804.203019 0003 0001 323
E: 61804.203020 0003 0018 47
E: 61804.203020 0000 0000 0
E: 61804.208618 0003 0035 647
E: 61804.208620 0003 0036 318
E: 61804.208622 0003 003a 45
E: 61804.208627 0003 0000 647
E: 61804.208628 0003 0001 318
E: 61804.208629 0003 0018 45
E: 61804.208631 0000 0000 0
E: 61804.214092 0003 0035 649
E: 61804.214092 0003 0036 315
E: 61804.214093 0003 003a 43
E: 61804.214094 0003 0000 649
E: 61804.214095 0003 0001 315
E: 61804.214095 0003 0018 43
E: 61804.214095 0000 0000 0
E: 61804.219673 0003 0035 650
E: 61804.219674 0003 0036 312
E: 61804.219675 0003 003a 47
E: 61804.219681 0003 0000 650
E: 61804.219682 0003 0001 312
E: 61804.219683 0003 0018 47
E: 61804.219684 0000 0000 0
E: 61804.225219 0003 0036 311
E: 61804.225221 0003 0001 311
E: 61804.225221 0000 0000 0
E: 61804.230749 0003 0036 310
E: 61804.230750 0003 003a 48
E: 61804.230752 0003 0001 310
E: 61804.230752 0003 0018 48
E: 61804.230752 0000 0000 0
E: 61804.236295 0003 0035 651
E: 61804.236296 0003 0036 309
E: 61804.236296 0003 003a 50
E: 61804.236298 0003 0000 651
E: 61804.236298 0003 0001 309
E: 61804.236298 0003 0018 50
E: 61804.236299 0000 0000 0
E: 61804.241846 0003 0036 308
E: 61804.241847 0003 003a 47
E: 61804.241848 0003 0001 308
E: 61804.241849 0003 0018 47
E: 61804.241849 0000 0000 0
E: 61804.247517 0003 003a 48
E: 61804.247527 0003 0018 48
E: 61804.247529 0000 0000 0
E: 61804.253026 0003 0036 307
E: 61804.253033 0003 0001 307
E: 61804.253035 0000 0000 0
E: 61804.258571 0003 0035 652
E: 61804.258573 0003 0036 306
E: 61804.258574 0003 003a 46
E: 61804.258579 0003 0000 652
E: 61804.258580 0003 0001 306
E: 61804.258581 0003 0018 46
E: 61804.258582 0000 0000 0
E: 61804.264136 0003 003a 45
E: 61804.264143 0003 0018 45
E: 61804.264144 0000 0000 0
E: 61804.269742 0003 0036 305
E: 61804.269744 0003 003a 46
E: 61804.269751 0003 0001 305
E: 61804.269752 0003 0018 46
E: 61804.269753 0000 0000 0
E: 61804.275207 0003 003a 47
E: 61804.275215 0003 0018 47
E: 61804.275216 0000 0000 0
E: 61804.280739 0003 003a 48
E: 61804.280746 0003 0018 48
E: 61804.280747 0000 0000 0
E: 61804.286351 0003 0036 304
E: 61804.286352 0003 003a 45
E: 61804.286358 0003 0001 304
E: 61804.286360 0003 0018 45
E: 61804.286361 0000 0000 0
E: 61804.297343 0003 0036 303
E: 61804.297350 0003 0001 303
E: 61804.297352 0000 0000 0
E: 61804.302947 0003 0035 653
E: 61804.302954 0003 0000 653
E: 61804.302957 0000 0000 0
E: 61804.314067 0003 0036 302
E: 61804.314069 0003 003a 47
E: 61804.314075 0003 0001 302
E: 61804.314076 0003 0018 47
E: 61804.314078 0000 0000 0
E: 61804.319616 0003 0036 301
E: 61804.319617 0003 003a 45
E: 61804.319623 0003 0001 301
E: 61804.319623 0003 0018 45
E: 61804.319624 0000 0000 0
E: 61804.325123 0003 0035 654
E: 61804.325125 0003 0000 654
E: 61804.325126 0000 0000 0
E: 61804.330716 0003 0036 300
E: 61804.330716 0003 003a 44
E: 61804.330717 0003 0001 300
E: 61804.330717 0003 0018 44
E: 61804.330718 0000 0000 0
E: 61804.336287 0003 0036 299
E: 61804.336289 0003 0001 299
E: 61804.336290 0000 0000 0
E: 61804.341846 0003 003a 45
E: 61804.341847 0003 0030 220
E: 61804.341849 0003 0018 45
E: 61804.341849 0000 0000 0
E: 61804.347533 0003 0036 298
E: 61804.347535 0003 003a 44
E: 61804.347537 0003 0030 254
E: 61804.347544 0003 0001 298
E: 61804.347546 0003 0018 44
E: 61804.347548 0000 0000 0
E: 61804.353030 0003 003a 45
E: 61804.353037 0003 0018 45
E: 61804.353038 0000 0000 0
E: 61804.358580 0003 0035 655
E: 61804.358581 0003 0036 297
E: 61804.358587 0003 0000 655
E: 61804.358588 0003 0001 297
E: 61804.358590 0000 0000 0
E: 61804.364125 0003 003a 46
E: 61804.364127 0003 0018 46
E: 61804.364128 0000 0000 0
E: 61804.369650 0003 0036 296
E: 61804.369650 0003 003a 45
E: 61804.369652 0003 0001 296
E: 61804.369652 0003 0018 45
E: 61804.369653 0000 0000 0
E: 61804.375910 0003 003a 44
E: 61804.375913 0003 0018 44
E: 61804.375913 0000 0000 0
E: 61804.381510 0003 003a 47
E: 61804.381512 0003 0018 47
E: 61804.381513 0000 0000 0
E: 61804.387072 0003 0036 295
E: 61804.387073 0003 003a 45
E: 61804.387075 0003 0001 295
E: 61804.387075 0003 0018 45
E: 61804.387075 0000 0000 0
E: 61804.392637 0003 003a 44
E: 61804.392640 0003 0018 44
E: 61804.392640 0000 0000 0
E: 61804.398191 0003 0036 294
E: 61804.398192 0003 003a 48
E: 61804.398194 0003 0001 294
E: 61804.398194 0003 0018 48
E: 61804.398194 0000 0000 0
E: 61804.403758 0003 0035 656
E: 61804.403759 0003 003a 44
E: 61804.403761 0003 0000 656
E: 61804.403761 0003 0018 44
E: 61804.403762 0000 0000 0
E: 61804.409345 0003 0035 655
E: 61804.409345 0003 003a 46
E: 61804.409346 0003 0030 220
E: 61804.409348 0003 0000 655
E: 61804.409348 0003 0018 46
E: 61804.409349 0000 0000 0
E: 61804.414881 0003 0035 656
E: 61804.414882 0003 0036 293
E: 61804.414882 0003 003a 48
E: 61804.414883 0003 0030 254
E: 61804.414885 0003 0000 656
E: 61804.414885 0003 0001 293
E: 61804.414885 0003 0018 48
E: 61804.414886 0000 0000 0
E: 61804.420491 0003 003a 43
E: 61804.420492 0003 0030 220
E: 61804.420494 0003 0018 43
E: 61804.420495 0000 0000 0
E: 61804.425937 0003 003a 46
E: 61804.425938 0003 0030 254
E: 61804.425940 0003 0018 46
E: 61804.425940 0000 0000 0
E: 61804.431497 0003 0036 292
E: 61804.431498 0003 003a 45
E: 61804.431500 0003 0001 292
E: 61804.431501 0003 0018 45
E: 61804.431501 0000 0000 0
E: 61804.437011 0003 003a 46
E: 61804.437013 0003 0018 46
E: 61804.437014 0000 0000 0
E: 61804.442614 0003 003a 44
E: 61804.442614 0003 0030 220
E: 61804.442616 0003 0018 44
E: 61804.442617 0000 0000 0
E: 61804.448169 0003 0036 291
E: 61804.448170 0003 003a 43
E: 61804.448172 0003 0001 291
E: 61804.448173 0003 0018 43
E: 61804.448173 0000 0000 0
E: 61804.453730 0003 003a 45
E: 61804.453730 0003 0030 254
E: 61804.453732 0003 0018 45
E: 61804.453733 0000 0000 0
E: 61804.459319 0003 0035 655
E: 61804.459320 0003 003a 46
E: 61804.459320 0003 0030 220
E: 61804.459322 0003 0000 655
E: 61804.459323 0003 0018 46
E: 61804.459323 0000 0000 0
E: 61804.464868 0003 0036 290
E: 61804.464869 0003 003a 45
E: 61804.464872 0003 0001 290
E: 61804.464872 0003 0018 45
E: 61804.464873 0000 0000 0
E: 61804.470325 0003 0035 656
E: 61804.470326 0003 003a 44
E: 61804.470328 0003 0000 656
E: 61804.470328 0003 0018 44
E: 61804.470329 0000 0000 0
E: 61804.475963 0003 0036 289
E: 61804.475965 0003 003a 45
E: 61804.475971 0003 0001 289
E: 61804.475972 0003 0018 45
E: 61804.475974 0000 0000 0
E: 61804.481523 0003 003a 42
E: 61804.481529 0003 0018 42
E: 61804.481531 0000 0000 0
E: 61804.487076 0003 0036 288
E: 61804.487077 0003 003a 43
E: 61804.487083 0003 0001 288
E: 61804.487084 0003 0018 43
E: 61804.487086 0000 0000 0
E: 61804.492644 0003 003a 44
E: 61804.492651 0003 0018 44
E: 61804.492653 0000 0000 0
E: 61804.498171 0003 0036 287
E: 61804.498173 0003 003a 45
E: 61804.498174 0003 0030 180
E: 61804.498179 0003 0001 287
E: 61804.498180 0003 0018 45
E: 61804.498181 0000 0000 0
E: 61804.503736 0003 0036 286
E: 61804.503737 0003 003a 41
E: 61804.503742 0003 0001 286
E: 61804.503744 0003 0018 41
E: 61804.503745 0000 0000 0
E: 61804.509386 0003 0036 285
E: 61804.509393 0003 0001 285
E: 61804.509395 0000 0000 0
E: 61804.514832 0003 0035 657
E: 61804.514833 0003 0036 284
E: 61804.514834 0003 003a 44
E: 61804.514839 0003 0000 657
E: 61804.514840 0003 0001 284
E: 61804.514841 0003 0018 44
E: 61804.514843 0000 0000 0
E: 61804.520387 0003 0036 282
E: 61804.520389 0003 003a 43
E: 61804.520394 0003 0001 282
E: 61804.520395 0003 0018 43
E: 61804.520397 0000 0000 0
E: 61804.525931 0003 0036 279
E: 61804.525932 0003 003a 42
E: 61804.525938 0003 0001 279
E: 61804.525939 0003 0018 42
E: 61804.525940 0000 0000 0
E: 61804.531488 0003 0036 276
E: 61804.531489 0003 003a 40
E: 61804.531495 0003 0001 276
E: 61804.531496 0003 0018 40
E: 61804.531497 0000 0000 0
E: 61804.537043 0003 0036 272
E: 61804.537044 0003 003a 39
E: 61804.537050 0003 0001 272
E: 61804.537051 0003 0018 39
E: 61804.537052 0000 0000 0
E: 61804.542569 0003 0036 268
E: 61804.542571 0003 003a 40
E: 61804.542577 0003 0001 268
E: 61804.542578 0003 0018 40
E: 61804.542579 0000 0000 0
E: 61804.548148 0003 0036 264
E: 61804.548150 0003 003a 43
E: 61804.548155 0003 0001 264
E: 61804.548157 0003 0018 43
E: 61804.548158 0000 0000 0
E: 61804.553757 0003 0036 260
E: 61804.553760 0003 003a 40
E: 61804.553769 0003 0001 260
E: 61804.553771 0003 0018 40
E: 61804.553773 0000 0000 0
E: 61804.559285 0003 0036 257
E: 61804.559287 0003 003a 38
E: 61804.559294 0003 0001 257
E: 61804.559295 0003 0018 38
E: 61804.559296 0000 0000 0
E: 61804.564845 0003 0036 254
E: 61804.564847 0003 003a 39
E: 61804.564853 0003 0001 254
E: 61804.564854 0003 0018 39
E: 61804.564856 0000 0000 0
E: 61804.570917 0003 0036 251
E: 61804.570920 0003 003a 43
E: 61804.570928 0003 0001 251
E: 61804.570930 0003 0018 43
E: 61804.570932 0000 0000 0
E: 61804.576441 0003 0036 249
E: 61804.576442 0003 003a 39
E: 61804.576444 0003 0001 249
E: 61804.576445 0003 0018 39
E: 61804.576445 0000 0000 0
E: 61804.582163 0003 0036 247
E: 61804.582166 0003 003a 40
E: 61804.582173 0003 0001 247
E: 61804.582174 0003 0018 40
E: 61804.582176 0000 0000 0
E: 61804.587580 0003 0036 246
E: 61804.587582 0003 003a 43
E: 61804.587604 0003 0001 246
E: 61804.587604 0003 0018 43
E: 61804.587605 0000 0000 0
E: 61804.593020 0003 0035 656
E: 61804.593021 0003 0036 244
E: 61804.593026 0003 0000 656
E: 61804.593027 0003 0001 244
E: 61804.593030 0000 0000 0
E: 61804.598728 0003 0036 243
E: 61804.598730 0003 003a 42
E: 61804.598738 0003 0001 243
E: 61804.598739 0003 0018 42
E: 61804.598740 0000 0000 0
E: 61804.604013 0003 0035 655
E: 61804.604014 0003 0036 242
E: 61804.604015 0003 003a 41
E: 61804.604017 0003 0000 655
E: 61804.604017 0003 0001 242
E: 61804.604017 0003 0018 41
E: 61804.604018 0000 0000 0
E: 61804.609630 0003 0036 241
E: 61804.609631 0003 003a 43
E: 61804.609636 0003 0001 241
E: 61804.609636 0003 0018 43
E: 61804.609637 0000 0000 0
E: 61804.615454 0003 0036 240
E: 61804.615461 0003 0001 240
E: 61804.615462 0000 0000 0
E: 61804.620809 0003 0035 654
E: 61804.620811 0003 0036 239
E: 61804.620812 0003 003a 45
E: 61804.620818 0003 0000 654
E: 61804.620819 0003 0001 239
E: 61804.620820 0003 0018 45
E: 61804.620822 0000 0000 0
E: 61804.626195 0003 0035 653
E: 61804.626197 0003 0036 238
E: 61804.626204 0003 0000 653
E: 61804.626205 0003 0001 238
E: 61804.626208 0000 0000 0
E: 61804.637269 0003 0035 652
E: 61804.637272 0003 003a 47
E: 61804.637278 0003 0000 652
E: 61804.637281 0003 0018 47
E: 61804.637282 0000 0000 0
E: 61804.642811 0003 0036 237
E: 61804.642813 0003 003a 46
E: 61804.642820 0003 0001 237
E: 61804.642821 0003 0018 46
E: 61804.642822 0000 0000 0
E: 61804.648352 0003 0035 651
E: 61804.648360 0003 0000 651
E: 61804.648363 0000 0000 0
E: 61804.659352 0003 0036 236
E: 61804.659360 0003 0001 236
E: 61804.659363 0000 0000 0
E: 61804.664968 0003 0035 650
E: 61804.664972 0003 003a 47
E: 61804.664980 0003 0000 650
E: 61804.664983 0003 0018 47
E: 61804.664985 0000 0000 0
E: 61804.670471 0003 003a 46
E: 61804.670479 0003 0018 46
E: 61804.670480 0000 0000 0
E: 61804.675889 0003 003a 49
E: 61804.675896 0003 0018 49
E: 61804.675898 0000 0000 0
E: 61804.681469 0003 003a 45
E: 61804.681487 0003 0018 45
E: 61804.681488 0000 0000 0
E: 61804.686964 0003 0035 649
E: 61804.686978 0003 003a 47
E: 61804.686982 0003 0000 649
E: 61804.686984 0003 0018 47
E: 61804.686985 0000 0000 0
E: 61804.692448 0003 003a 45
E: 61804.692456 0003 0018 45
E: 61804.692457 0000 0000 0
E: 61804.703635 0003 003a 46
E: 61804.703646 0003 0018 46
E: 61804.703649 0000 0000 0
E: 61804.709090 0003 003a 42
E: 61804.709098 0003 0018 42
E: 61804.709099 0000 0000 0
E: 61804.714633 0003 003a 37
E: 61804.714636 0003 0018 37
E: 61804.714636 0000 0000 0
E: 61804.720217 0003 003a 32
E: 61804.720220 0003 0018 32
E: 61804.720221 0000 0000 0
E: 61804.740670 0003 0039 -1
E: 61804.740673 0001 014a 0
E: 61804.740674 0001 0145 0
E: 61804.740675 0003 0018 0
E: 61804.740675 0000 0000 0
E: 61804.852826 0003 0039 12853
E: 61804.852830 0003 0035 623
E: 61804.852831 0003 0036 303
E: 61804.852832 0003 003a 53
E: 61804.852833 0003 0030 254
E: 61804.852836 0001 014a 1
E: 61804.852837 0001 0145 1
E: 61804.852841 0003 0000 623
E: 61804.852842 0003 0001 303
E: 61804.852844 0003 0018 53
E: 61804.852845 0000 0000 0
E: 61804.858250 0003 003a 51
E: 61804.858259 0003 0018 51
E: 61804.858261 0000 0000 0
E: 61804.863711 0003 003a 54
E: 61804.863718 0003 0018 54
E: 61804.863720 0000 0000 0
E: 61804.869375 0003 003a 51
E: 61804.869385 0003 0018 51
E: 61804.869386 0000 0000 0
E: 61804.874711 0003 003a 53
E: 61804.874717 0003 0018 53
E: 61804.874719 0000 0000 0
E: 61804.880256 0003 003a 46
E: 61804.880258 0003 0030 220
E: 61804.880265 0003 0018 46
E: 61804.880267 0000 0000 0
E: 61804.885879 0003 003a 40
E: 61804.885881 0003 0030 180
E: 61804.885888 0003 0018 40
E: 61804.885889 0000 0000 0
E: 61804.891265 0003 0036 304
E: 61804.891267 0003 003a 25
E: 61804.891268 0003 0030 126
E: 61804.891274 0003 0001 304
E: 61804.891275 0003 0018 25
E: 61804.891277 0000 0000 0
E: 61804.911733 0003 0039 -1
E: 61804.911737 0001 014a 0
E: 61804.911737 0001 0145 0
E: 61804.911739 0003 0018 0
E: 61804.911739 0000 0000 0
E: 61804.912239 0003 002f 0
E: 61804.912239 0003 0039 -1
E: 61804.912239 0003 002f 1
E: 61804.912239 0003 0039 -1
E: 61804.912239 0003 002f 2
E: 61804.912239 0003 0039 -1
E: 61804.912239 0003 002f 3
E: 61804.912239 0003 0039 -1
E: 61804.912239 0003 002f 4
E: 61804.912239 0003 0039 -1
E: 61804.912239 0003 002f 5
E: 61804.912239 0003 0039 -1
E: 61804.912239 0003 002f 6
E: 61804.912239 0003 0039 -1
E: 61804.912239 0003 002f 7
E: 61804.912239 0003 0039 -1
E: 61804.912239 0003 002f 8
E: 61804.912239 0003 0039 -1
E: 61804.912239 0003 002f 9
E: 61804.912239 0003 0039 -1
